…
  # Minor data cleaning steps
  |> mutate(PDB_jury_column_rsa_unb = as.factor(PDB_jury_column_rsa_unb))
  |> replace_na(
    list(
      PDB_protein_ligand_interactions = 0,
      PDB_biolip = 0,
      PDB_sequences_with_contacts = 0
    )
  )
)
```

    ## # A tibble: 167,171 × 26
    ##    family  column splice_…¹ synon…² occup…³ shenkin misse…⁴ mes_or mes_p occup…⁵
    ##    <chr>    <dbl>     <dbl>   <dbl>   <dbl>   <dbl>   <dbl>  <dbl> <dbl>   <dbl>
    ##  1 PF00001     41         0       0       1    6.30       1  1.89  1         -70
    ##  2 PF00001     42         0       1       1    6.33       1  1.89  1         -70
    ##  3 PF00001     43         0       0       2    6.37       1  0.945 1         -69
    ##  4 PF00001     44         0       1       3    6.46       0  0     0.556     -68
    ##  5 PF00001     45         0       1       5    6.59       2  0.756 1         -66
    ##  6 PF00001     46         0       1       5    6.82       4  1.51  0.507     -66
    ##  7 PF00001     47         0       3       6    6.84       7  2.20  0.154     -65
    ##  8 PF00001     48         0       2       7    6.96       6  1.62  0.393     -64
    ##  9 PF00001     49         0       4       7    7.04       4  1.08  1         -64
    ## 10 PF00001     50         0       4       7    7.09       5  1.35  0.763     -64
    ## # … with 167,161 more rows, 16 more variables: occupancy_gteq_threshold <lgl>,
    ## #   shenkin_nrank <dbl>, mes_or_nrank <dbl>, mes_or_log <dbl>,
    ## #   CV_Pathogenic <dbl>, PDB_sequences_with_contacts <dbl>,
    ## #   PDB_protein_ligand_interactions <dbl>, PDB_total_ligand_interactions <dbl>,
    ## #   PDB_protein_protein_interactions <dbl>,
    ## #   PDB_total_protein_interactions <dbl>, PDB_biolip <dbl>,
    ## #   PDB_total_biolip <dbl>, PDB_jury_column_rsa_unb <fct>, mes_class <fct>, …
…
