…
``` r
(avs
 |> filter(occupancy %in% c(1, 5, 9))  # N human sequences to be plotted, filters columns
 # |> sample_n(10000)  # for prototyping
 |> group_by(occupancy, missense_all)
 |> summarise(n_cols = n())
 -> avs_missense_freqs_by_nhuman
 )
```

    ## `summarise()` has grouped output by 'occupancy'. You can override using the
    ## `.groups` argument.

    ## # A tibble: 48 × 3
    ## # Groups:   occupancy [3]
    ##    occupancy missense_all n_cols
    ##        <dbl>        <dbl>  <int>
    ##  1         1            0 391034
    ##  2         1            1 183476
    ##  3         1            2  51035
    ##  4         1            3   9143
    ##  5         1            4   1163
    ##  6         1            5     96
    ##  7         1            6     14
    ##  8         1            7      3
    ##  9         1            8      1
    ## 10         1            9      1
    ## # … with 38 more rows
…
