…
# Load pre-computed frequencies
pfam_res_mis_freqs <-
  read_csv(
    "data/pfam-residue-missense-counts-summary.csv",
    col_types = cols(missense_variants = col_double(),
                     freq = col_double())
  )
pfam_res_mis_freqs
```

    ## # A tibble: 24 × 2
    ##    missense_variants    freq
    ##                <dbl>   <dbl>
    ##  1                 0 3315914
    ##  2                 1 1381407
    ##  3                 2  384094
    ##  4                 3   70803
    ##  5                 4    9259
    ##  6                 5     923
    ##  7                 6     115
    ##  8                 7      42
    ##  9                 8      34
    ## 10                 9      24
    ## # … with 14 more rows
…
