…
      levels = c('md', 'mn', 'me')
    ),
    cons_class = factor(
      ifelse(shenkin_nrank > 0.5, 'u', 'c'),
      levels = c('u', 'c')
    ),
    xclass = factor(
      interaction(cons_class, mes_class, sep = ''),
      levels = c('cmd', 'cmn', 'cme', 'umd', 'umn', 'ume')
    )
  )
)
```

    ## # A tibble: 10,000 × 19
    ##    family  column splice…¹ synon…² occup…³ shenkin misse…⁴ mes_or  mes_p occup…⁵
    ##    <chr>    <dbl>    <dbl>   <dbl>   <dbl>   <dbl>   <dbl>  <dbl>  <dbl>   <dbl>
    ##  1 PF00271    104        1       9      49    24.5      16  0.894 0.780       23
    ##  2 PF01839     24        0       8      35    55.4      15  0.783 0.459       27
    ##  3 PF00337    102        0       3      22    22.5      10  0.911 1           17
    ##  4 PF00003    400        0       5      22    30.2       4  0.369 0.0609      17
    ##  5 PF01839     16        0      12      35    37.0      12  0.624 0.168       27
    ##  6 PF00225    605        0       9      40    62.2      18  1.02  1           29
    ##  7 PF15779     90        0       0      23    10.6       6  1.36  0.452       18
    ##  8 PF00615    161        0       7      38    73.2      10  0.583 0.158       29
    ##  9 PF00531     29        1       9      31    82.7      17  1.13  0.757       24
    ## 10 PF00201    385        0       4      21    22.2       9  0.649 0.351       16
    ## # … with 9,990 more rows, 9 more variables: occupancy_gteq_threshold <lgl>,
    ## #   shenkin_nrank <dbl>, mes_or_nrank <dbl>, mes_or_log <dbl>,
    ## #   PDB_jury_column_rsa_unb <chr>, synonymous_all <dbl>, mes_class <fct>,
    ## #   cons_class <fct>, xclass <fct>, and abbreviated variable names
    ## #   ¹​`splice_region_variant&synonymous_variant`, ²​synonymous_variant,
    ## #   ³​occupancy, ⁴​missense_all, ⁵​occupancy_minus_threshold
…
