…
  # Powered Pfams
  |> group_by(family) |> filter(any(mes_or < 1 & mes_p < 0.1)) |> ungroup()
  |> group_by(family) |> filter(any(mes_or > 1 & mes_p < 0.1)) |> ungroup()
  
  # Other
  |> mutate(PDB_jury_column_rsa_unb = as.factor(PDB_jury_column_rsa_unb))  # count all RSA*MES intersections
  |> replace_na(list(PDB_protein_ligand_interactions = 0, PDB_biolip = 0,
                     PDB_sequences_with_contacts = 0))
)
```

    ## # A tibble: 167,171 × 18
    ##    family  column occupancy shenkin misse…¹ mes_or mes_p occup…² occup…³ shenk…⁴
    ##    <chr>    <dbl>     <dbl>   <dbl>   <dbl>  <dbl> <dbl>   <dbl> <lgl>     <dbl>
    ##  1 PF00001     41         1    6.30       1  1.89  1         -70 FALSE         0
    ##  2 PF00001     42         1    6.33       1  1.89  1         -70 FALSE         0
    ##  3 PF00001     43         2    6.37       1  0.945 1         -69 FALSE         0
    ##  4 PF00001     44         3    6.46       0  0     0.556     -68 FALSE         0
    ##  5 PF00001     45         5    6.59       2  0.756 1         -66 FALSE         0
    ##  6 PF00001     46         5    6.82       4  1.51  0.507     -66 FALSE         0
    ##  7 PF00001     47         6    6.84       7  2.20  0.154     -65 FALSE         0
    ##  8 PF00001     48         7    6.96       6  1.62  0.393     -64 FALSE         0
    ##  9 PF00001     49         7    7.04       4  1.08  1         -64 FALSE         0
    ## 10 PF00001     50         7    7.09       5  1.35  0.763     -64 FALSE         0
    ## # … with 167,161 more rows, 8 more variables: mes_or_nrank <dbl>,
    ## #   mes_or_log <dbl>, PDB_sequences_with_contacts <dbl>,
    ## #   PDB_jury_column_rsa_unb <fct>, PDB_jury_column_rsa_bound <chr>,
    ## #   mes_class <fct>, cons_class <fct>, xclass <fct>, and abbreviated variable
    ## #   names ¹​missense_all, ²​occupancy_minus_threshold, ³​occupancy_gteq_threshold,
    ## #   ⁴​shenkin_nrank
…
